\relax 
\catcode `"\active 
\catcode `<\active 
\catcode `>\active 
\@nameuse{es@quoting}
\bibstyle{plain}
\babel@aux{spanish}{}
\babel@aux{spanish}{}
\@writefile{toc}{\contentsline {chapter}{Dedicatoria}{\es@scroman  {i}}\protected@file@percent }
\@writefile{toc}{\contentsline {chapter}{Agradecimientos}{\es@scroman  {ii}}\protected@file@percent }
\@writefile{toc}{\contentsline {chapter}{Tabla de Contenidos}{\es@scroman  {iii}}\protected@file@percent }
\@writefile{toc}{\contentsline {chapter}{\'{I}ndice de Figuras}{\es@scroman  {iv}}\protected@file@percent }
\@writefile{toc}{\contentsline {chapter}{\'{I}ndice de Tablas}{\es@scroman  {v}}\protected@file@percent }
\@writefile{toc}{\contentsline {chapter}{Tabla de Contenidos}{\es@scroman  {vi}}\protected@file@percent }
\@writefile{toc}{\contentsline {chapter}{Resumen}{\es@scroman  {vii}}\protected@file@percent }
\citation{metodologiacompetencias}
\citation{dacum}
\citation{metodologiacompetencias}
\citation{modeloeducativo}
\@writefile{toc}{\contentsline {chapter}{\numberline {1}Introducci\'on}{8}\protected@file@percent }
\@writefile{lof}{\addvspace {10\p@ }}
\@writefile{lot}{\addvspace {10\p@ }}
\@writefile{toc}{\contentsline {section}{\numberline {1.1}Descripci\'on del Contexto}{8}\protected@file@percent }
\citation{modeloeducativo}
\citation{modeloeducativo}
\@writefile{toc}{\contentsline {section}{\numberline {1.2}Definici\'on del Problema}{9}\protected@file@percent }
\@writefile{toc}{\contentsline {section}{\numberline {1.3}Objetivos}{10}\protected@file@percent }
\@writefile{toc}{\contentsline {subsection}{\numberline {1.3.1}Objetivo General}{10}\protected@file@percent }
\@writefile{toc}{\contentsline {subsection}{\numberline {1.3.2}Objetivos Espec\'ificos}{10}\protected@file@percent }
\@writefile{toc}{\contentsline {section}{\numberline {1.4}Alcances}{10}\protected@file@percent }
\@writefile{toc}{\contentsline {section}{\numberline {1.5}Propuesta de Soluci\'on}{11}\protected@file@percent }
\citation{asp.net}
\citation{asp.net_core}
\citation{asp.net_core}
\citation{asp.net_core}
\citation{asp.net_core}
\citation{bootstrap}
\@writefile{toc}{\contentsline {chapter}{\numberline {2}Marco Te\'orico}{12}\protected@file@percent }
\@writefile{lof}{\addvspace {10\p@ }}
\@writefile{lot}{\addvspace {10\p@ }}
\@writefile{toc}{\contentsline {section}{\numberline {2.1}Tecnolog\'ias Utilizadas}{12}\protected@file@percent }
\@writefile{toc}{\contentsline {subsection}{\numberline {2.1.1}Frameworks}{12}\protected@file@percent }
\@writefile{toc}{\contentsline {subsubsection}{ASP.NET Core}{12}\protected@file@percent }
\citation{gentelella}
\citation{csharp}
\@writefile{toc}{\contentsline {subsubsection}{Bootstrap}{13}\protected@file@percent }
\@writefile{lof}{\contentsline {figure}{\numberline {2.1}{\ignorespaces Ejemplo de plantilla demo de Gentelella.}}{13}\protected@file@percent }
\newlabel{fig:gentelella}{{2.1}{13}}
\citation{html}
\citation{razor}
\citation{css}
\@writefile{toc}{\contentsline {subsection}{\numberline {2.1.2}Lenguajes}{14}\protected@file@percent }
\@writefile{toc}{\contentsline {subsubsection}{C\#}{14}\protected@file@percent }
\@writefile{toc}{\contentsline {subsubsection}{HTML-Razor}{14}\protected@file@percent }
\@writefile{toc}{\contentsline {subsubsection}{CSS}{14}\protected@file@percent }
\citation{javascript}
\citation{jquery}
\citation{fullcalendar}
\citation{datatable}
\citation{parsley}
\citation{modeloeducativo}
\citation{metodologiacompetencias}
\@writefile{toc}{\contentsline {subsubsection}{JavaScript}{15}\protected@file@percent }
\@writefile{toc}{\contentsline {subsection}{\numberline {2.1.3}Bibliotecas}{15}\protected@file@percent }
\@writefile{toc}{\contentsline {subsubsection}{jQuery}{15}\protected@file@percent }
\citation{metodologiacompetencias}
\citation{metodologiacompetencias}
\@writefile{toc}{\contentsline {section}{\numberline {2.2}Metodolog\'ia Curricular Basada en Competencias}{16}\protected@file@percent }
\citation{modeloeducativo}
\citation{metodologiacompetencias}
\citation{metodologiacompetencias}
\@writefile{lof}{\contentsline {figure}{\numberline {2.2}{\ignorespaces Diagrama de Metodolog\'ia para el Dise\~no Curricular, Fase A.}}{17}\protected@file@percent }
\newlabel{fig:fase_a_competencias}{{2.2}{17}}
\citation{metodologiacompetencias}
\citation{metodologiacompetencias}
\@writefile{lof}{\contentsline {figure}{\numberline {2.3}{\ignorespaces Diagrama de Metodolog\'ia para el Dise\~no Curricular, Fase B.}}{18}\protected@file@percent }
\newlabel{fig:fase_b_competencias}{{2.3}{18}}
\@writefile{lof}{\contentsline {figure}{\numberline {2.4}{\ignorespaces Diagrama de Metodolog\'ia para el Dise\~no Curricular, Fase C.}}{18}\protected@file@percent }
\newlabel{fig:fase_c_competencias}{{2.4}{18}}
\citation{metodologiacompetencias}
\citation{metodologiacompetencias}
\citation{metodologiacompetencias}
\citation{modeloeducativo}
\@writefile{lof}{\contentsline {figure}{\numberline {2.5}{\ignorespaces Diagrama de Metodolog\'ia para el Dise\~no Curricular, Fase D.}}{19}\protected@file@percent }
\newlabel{fig:fase_d_competencias}{{2.5}{19}}
\citation{metodologiacompetencias}
\@writefile{lof}{\contentsline {figure}{\numberline {2.6}{\ignorespaces Diagrama de Metodolog\'ia para el Dise\~no Curricular, Fase E.}}{20}\protected@file@percent }
\newlabel{fig:fase_e_competencias}{{2.6}{20}}
\@writefile{toc}{\contentsline {section}{\numberline {2.3}Trabajos Relacionados}{20}\protected@file@percent }
\citation{metodologiacompetencias}
\@writefile{toc}{\contentsline {subsection}{\numberline {2.3.1}Modelo Curricular del Instruccional Perfomance Technology}{21}\protected@file@percent }
\@writefile{lof}{\contentsline {figure}{\numberline {2.7}{\ignorespaces Modelo IPT (Instructional Perfomance Technology). Etapas 1, 2, 3 y 4}}{21}\protected@file@percent }
\newlabel{fig:modelo_ipt_1}{{2.7}{21}}
\@writefile{lof}{\contentsline {figure}{\numberline {2.8}{\ignorespaces Modelo IPT (Instructional Perfomance Technology). Etapas 5 y 6}}{22}\protected@file@percent }
\newlabel{fig:modelo_ipt_2}{{2.8}{22}}
\citation{metodologiacompetencias}
\citation{metodologiacompetencias}
\@writefile{toc}{\contentsline {subsection}{\numberline {2.3.2}Modelo Curricular TTTI}{23}\protected@file@percent }
\@writefile{lof}{\contentsline {figure}{\numberline {2.9}{\ignorespaces Modelo TTTI}}{24}\protected@file@percent }
\newlabel{fig:ttti}{{2.9}{24}}
\@writefile{toc}{\contentsline {chapter}{\numberline {3}Construcci\'on del Sistema}{25}\protected@file@percent }
\@writefile{lof}{\addvspace {10\p@ }}
\@writefile{lot}{\addvspace {10\p@ }}
\@writefile{toc}{\contentsline {section}{\numberline {3.1}Metolodog\'ias}{25}\protected@file@percent }
\@writefile{toc}{\contentsline {subsection}{\numberline {3.1.1}Metodolog\'ia de Desarrollo: Tradicional Iterativo Incremental}{25}\protected@file@percent }
\citation{pressman}
\@writefile{lof}{\contentsline {figure}{\numberline {3.1}{\ignorespaces Ejemplo del modelo Incremental.}}{26}\protected@file@percent }
\newlabel{fig:incremental}{{3.1}{26}}
\citation{guide_empirical}
\citation{guide_empirical}
\@writefile{toc}{\contentsline {subsection}{\numberline {3.1.2}Metodolog\'ia de evaluaci\'on en Ingenier\'ia de Software: Experimentos Controlados}{27}\protected@file@percent }
\citation{guide_empirical}
\citation{guide_empirical}
\citation{cajanegra_cajablanca}
\@writefile{toc}{\contentsline {subsubsection}{Pruebas de Caja Negra}{28}\protected@file@percent }
\citation{cajanegra_cajablanca}
\citation{cajanegra_cajablanca}
\@writefile{lof}{\contentsline {figure}{\numberline {3.2}{\ignorespaces Diagrama de representaci\'on de una prueba de caja negra.}}{29}\protected@file@percent }
\newlabel{fig:caja_negra}{{3.2}{29}}
\citation{cajanegra_cajablanca}
\@writefile{toc}{\contentsline {subsubsection}{Pruebas de Caja Blanca}{30}\protected@file@percent }
\@writefile{toc}{\contentsline {subsection}{\numberline {3.1.3}Pruebas de Usabilidad}{31}\protected@file@percent }
\@writefile{toc}{\contentsline {chapter}{\numberline {4}Especificaci\'on de Requisitos}{32}\protected@file@percent }
\@writefile{lof}{\addvspace {10\p@ }}
\@writefile{lot}{\addvspace {10\p@ }}
\newlabel{fig:sommerville}{{4}{32}}
\@writefile{toc}{\contentsline {section}{\numberline {4.1}Caracter\'isticas de los Usuarios}{33}\protected@file@percent }
\@writefile{toc}{\contentsline {section}{\numberline {4.2}Requisitos de Usuario}{33}\protected@file@percent }
\@writefile{toc}{\contentsline {section}{\numberline {4.3}Requisitos de Sistema}{35}\protected@file@percent }
\@writefile{toc}{\contentsline {section}{\numberline {4.4}Requisitos de Interfaz}{35}\protected@file@percent }
\@writefile{toc}{\contentsline {section}{\numberline {4.5}Restricciones Generales}{35}\protected@file@percent }
\@writefile{toc}{\contentsline {subsubsection}{Restricciones de Software}{35}\protected@file@percent }
\@writefile{toc}{\contentsline {section}{\numberline {4.6}Matriz de Responsabilidades}{36}\protected@file@percent }
\citation{pressman}
\citation{pressman}
\citation{sommerville}
\citation{sommerville}
\@writefile{toc}{\contentsline {chapter}{\numberline {5}Dise\~A\pm o del Sistema}{37}\protected@file@percent }
\@writefile{lof}{\addvspace {10\p@ }}
\@writefile{lot}{\addvspace {10\p@ }}
\@writefile{toc}{\contentsline {section}{\numberline {5.1}Dise\~no Arquitect\'onico}{37}\protected@file@percent }
\@writefile{toc}{\contentsline {subsection}{\numberline {5.1.1}Arquitectura F\'isica}{37}\protected@file@percent }
\citation{sommerville}
\citation{mvc}
\citation{mvc}
\citation{sommerville}
\@writefile{lof}{\contentsline {figure}{\numberline {5.1}{\ignorespaces Diagrama de representaci\'on de la Arquitectura F\'isica del sistema.}}{38}\protected@file@percent }
\newlabel{fig:a_fisica}{{5.1}{38}}
\@writefile{toc}{\contentsline {subsection}{\numberline {5.1.2}Arquitectura L\'ogica}{38}\protected@file@percent }
\citation{sommerville}
\citation{mvc}
\citation{sommerville}
\citation{mvc}
\@writefile{lof}{\contentsline {figure}{\numberline {5.2}{\ignorespaces Diagrama general de representaci\'on de la Arquitectura L\'ogica}}{39}\protected@file@percent }
\newlabel{fig:a_logica}{{5.2}{39}}
\@writefile{lof}{\contentsline {figure}{\numberline {5.3}{\ignorespaces Diagrama general de representaci\'on de la Vista de la Arquitectura L\'ogica}}{40}\protected@file@percent }
\newlabel{fig:a_logica_vista}{{5.3}{40}}
\@writefile{lof}{\contentsline {figure}{\numberline {5.4}{\ignorespaces Diagrama general de representaci\'on del Controlador de la Arquitectura L\'ogica}}{40}\protected@file@percent }
\newlabel{fig:a_logica_controlador}{{5.4}{40}}
\@writefile{lof}{\contentsline {figure}{\numberline {5.5}{\ignorespaces Diagrama general de representaci\'on del Modelo de la Arquitectura L\'ogica}}{41}\protected@file@percent }
\newlabel{fig:a_logica_modelo}{{5.5}{41}}
\@writefile{toc}{\contentsline {section}{\numberline {5.2}Diagrama de Clases}{41}\protected@file@percent }
\@writefile{toc}{\contentsline {section}{\numberline {5.3}Diagrama Relacional}{41}\protected@file@percent }
\@writefile{toc}{\contentsline {section}{\numberline {5.4}Diagramas de Actividades}{41}\protected@file@percent }
\@writefile{toc}{\contentsline {section}{\numberline {5.5}Diagramas de Casos de Uso}{41}\protected@file@percent }
\@writefile{toc}{\contentsline {section}{\numberline {5.6}Dise\~no de Interfaz}{41}\protected@file@percent }
\@writefile{toc}{\contentsline {subsection}{\numberline {5.6.1}Definici\'on de soluci\'on de Dise\~no}{41}\protected@file@percent }
\@writefile{toc}{\contentsline {subsection}{\numberline {5.6.2}Soluci\'on de Dise\~no}{41}\protected@file@percent }
\@writefile{toc}{\contentsline {subsubsection}{Teor\'ia del Color}{42}\protected@file@percent }
\@writefile{toc}{\contentsline {subsubsection}{Tipograf\'ia}{42}\protected@file@percent }
\@writefile{toc}{\contentsline {subsubsection}{Imagen}{42}\protected@file@percent }
\@writefile{toc}{\contentsline {subsubsection}{Linea de Dise\~no}{42}\protected@file@percent }
\@writefile{toc}{\contentsline {subsection}{\numberline {5.6.3}Prototipo de soluci\'on de Dise\~no}{42}\protected@file@percent }
\@writefile{toc}{\contentsline {chapter}{\numberline {6}Desarrollo}{43}\protected@file@percent }
\@writefile{lof}{\addvspace {10\p@ }}
\@writefile{lot}{\addvspace {10\p@ }}
\@writefile{toc}{\contentsline {chapter}{\numberline {7}Pruebas y An\'alisis de Resultados}{44}\protected@file@percent }
\@writefile{lof}{\addvspace {10\p@ }}
\@writefile{lot}{\addvspace {10\p@ }}
\@writefile{toc}{\contentsline {section}{\numberline {7.1}Pruebas de Caja Negra}{44}\protected@file@percent }
\@writefile{toc}{\contentsline {section}{\numberline {7.2}Pruebas de Caja Blanca}{44}\protected@file@percent }
\@writefile{toc}{\contentsline {section}{\numberline {7.3}Pruebas de Usabilidad}{44}\protected@file@percent }
\@writefile{toc}{\contentsline {chapter}{\numberline {8}Conclusiones y Trabajos Futuros}{45}\protected@file@percent }
\@writefile{lof}{\addvspace {10\p@ }}
\@writefile{lot}{\addvspace {10\p@ }}
\@writefile{toc}{\contentsline {section}{\numberline {8.1}Conclusiones}{45}\protected@file@percent }
\@writefile{toc}{\contentsline {section}{\numberline {8.2}Trabajo Futuro}{45}\protected@file@percent }
\citation{api}
\citation{ajax}
\citation{clr}
\citation{crud}
\citation{pressman}
\citation{dacum}
\citation{frameworkdef}
\citation{framework}
\citation{markup}
\citation{markup2}
\@writefile{toc}{\contentsline {chapter}{Glosario}{46}\protected@file@percent }
\citation{modeloeducativo}
\citation{modeloeducativo}
\citation{modeloeducativo}
\citation{tester}
\citation{usabilidad}
\bibdata{refs}
\@writefile{toc}{\contentsline {chapter}{Anexos}{}}
\@writefile{lof}{\addvspace {10\p@ }}
\@writefile{lot}{\addvspace {10\p@ }}
\@writefile{toc}{\contentsline {chapter}{A:\hspace  {1em}Marco Te\~A{^3}rico}{49}\protected@file@percent }
\@writefile{lof}{\addvspace {10\p@ }}
\@writefile{lot}{\addvspace {10\p@ }}
\@writefile{toc}{\contentsline {section}{\numberline {A.1}Diagramas de Metodolog\~A\-a para el Dise\~no Curricular}{49}\protected@file@percent }
\@writefile{toc}{\contentsline {section}{\numberline {A.2}Plan Curricular Ingenier\~A\-a Civil en Computaci\~A{^3}n}{49}\protected@file@percent }
\@writefile{lof}{\contentsline {figure}{\numberline {A.1}{\ignorespaces Diagrama de Metodolog\~A\-a para el Dise\~no Curricular Parte 1}}{50}\protected@file@percent }
\newlabel{fig:diagrama_competencias1}{{A.1}{50}}
\@writefile{lof}{\contentsline {figure}{\numberline {A.2}{\ignorespaces Diagrama de Metodolog\~A\-a para el Dise\~no Curricular Parte 2}}{51}\protected@file@percent }
\newlabel{fig:diagrama_competencias2}{{A.2}{51}}
\@writefile{lof}{\contentsline {figure}{\numberline {A.3}{\ignorespaces Plan Curricular 16 de Ingenier\~A\-a Civil en Computaci\~A{^3}n}}{52}\protected@file@percent }
\newlabel{fig:plan_16}{{A.3}{52}}
\@writefile{toc}{\contentsline {chapter}{B:\hspace  {1em}Construcci\~A{^3}n del Sistema}{53}\protected@file@percent }
\@writefile{lof}{\addvspace {10\p@ }}
\@writefile{lot}{\addvspace {10\p@ }}
\@writefile{toc}{\contentsline {section}{\numberline {B.1}La primera secci\~A{^3}n del segundo anexo}{53}\protected@file@percent }
\@writefile{toc}{\contentsline {chapter}{C:\hspace  {1em}Dise\~no de Software}{54}\protected@file@percent }
\@writefile{lof}{\addvspace {10\p@ }}
\@writefile{lot}{\addvspace {10\p@ }}
\@writefile{toc}{\contentsline {section}{\numberline {C.1}La primera secci\~A{^3}n del segundo anexo}{54}\protected@file@percent }
