# Fdb version 3
["bibtex memoria"] 0 "memoria.aux" "memoria.bbl" "memoria" 0
  "c:/texlive/2019/texmf-dist/bibtex/bst/base/plain.bst" 1557186213 20613 bd3fbfa9f64872b81ac57a0dd2ed855f ""
  "memoria.aux" 0 -1 0 "pdflatex"
  "refs.bib" 1557200754 7460 af0ae7ee6283ab78a56aa544bffe669b ""
  (generated)
  "memoria.bbl"
  "memoria.blg"
["pdflatex"] 1557194914 "c:/Users/Liemind/Documents/Universidad de Talca/2019-1/THISIS/Thisis/memoria.tex" "c:/Users/Liemind/Documents/Universidad de Talca/2019-1/THISIS/Thisis/memoria.pdf" "memoria" 1557194914
  "c:/Users/Liemind/Documents/Universidad de Talca/2019-1/THISIS/Thisis/memoria.aux" 1557194914 9 a94a2480d3289e625eea47cd1b285758 ""
  "c:/Users/Liemind/Documents/Universidad de Talca/2019-1/THISIS/Thisis/memoria.lof" 0 -1 0 ""
  "c:/Users/Liemind/Documents/Universidad de Talca/2019-1/THISIS/Thisis/memoria.lot" 0 -1 0 ""
  "c:/Users/Liemind/Documents/Universidad de Talca/2019-1/THISIS/Thisis/memoria.tex" 1557194588 3928 2688a25949f01aef439a59a31bcb851d ""
  "c:/Users/Liemind/Documents/Universidad de Talca/2019-1/THISIS/Thisis/memoria.toc" 0 -1 0 ""
  "c:/texlive/2019/texmf-dist/fonts/map/fontname/texfonts.map" 1557187132 3332 103109f5612ad95229751940c61aada0 ""
  "c:/texlive/2019/texmf-dist/fonts/tfm/public/cm/cmbx12.tfm" 1557186417 1324 c910af8c371558dc20f2d7822f66fe64 ""
  "c:/texlive/2019/texmf-dist/fonts/tfm/public/cm/cmbxti10.tfm" 1557186417 1532 9162035f4e7176612125649e348e2195 ""
  "c:/texlive/2019/texmf-dist/fonts/tfm/public/cm/cmcsc10.tfm" 1557186417 1300 63a6111ee6274895728663cf4b4e7e81 ""
  "c:/texlive/2019/texmf-dist/fonts/tfm/public/cm/cmmi12.tfm" 1557186417 1524 4414a8315f39513458b80dfc63bff03a ""
  "c:/texlive/2019/texmf-dist/fonts/tfm/public/cm/cmmi6.tfm" 1557186417 1512 f21f83efb36853c0b70002322c1ab3ad ""
  "c:/texlive/2019/texmf-dist/fonts/tfm/public/cm/cmmi8.tfm" 1557186417 1520 eccf95517727cb11801f4f1aee3a21b4 ""
  "c:/texlive/2019/texmf-dist/fonts/tfm/public/cm/cmr12.tfm" 1557186417 1288 655e228510b4c2a1abe905c368440826 ""
  "c:/texlive/2019/texmf-dist/fonts/tfm/public/cm/cmr17.tfm" 1557186417 1292 296a67155bdbfc32aa9c636f21e91433 ""
  "c:/texlive/2019/texmf-dist/fonts/tfm/public/cm/cmr6.tfm" 1557186417 1300 b62933e007d01cfd073f79b963c01526 ""
  "c:/texlive/2019/texmf-dist/fonts/tfm/public/cm/cmr8.tfm" 1557186417 1292 21c1c5bfeaebccffdb478fd231a0997d ""
  "c:/texlive/2019/texmf-dist/fonts/tfm/public/cm/cmsl12.tfm" 1557186417 1504 f280e6069e577ca4a981806c471fe65c ""
  "c:/texlive/2019/texmf-dist/fonts/tfm/public/cm/cmsy10.tfm" 1557186418 1124 6c73e740cf17375f03eec0ee63599741 ""
  "c:/texlive/2019/texmf-dist/fonts/tfm/public/cm/cmsy6.tfm" 1557186418 1116 933a60c408fc0a863a92debe84b2d294 ""
  "c:/texlive/2019/texmf-dist/fonts/tfm/public/cm/cmsy8.tfm" 1557186418 1120 8b7d695260f3cff42e636090a8002094 ""
  "c:/texlive/2019/texmf-dist/fonts/tfm/public/cm/cmti12.tfm" 1557186418 1484 ed72f8f5cf654cda15ecc8e32bfcbee5 ""
  "c:/texlive/2019/texmf-dist/fonts/type1/public/amsfonts/cm/cmbx12.pfb" 1557185851 32080 340ef9bf63678554ee606688e7b5339d ""
  "c:/texlive/2019/texmf-dist/fonts/type1/public/amsfonts/cm/cmbxti10.pfb" 1557185851 36554 b67dc2cfa451409e100b3fcf5f506509 ""
  "c:/texlive/2019/texmf-dist/fonts/type1/public/amsfonts/cm/cmcsc10.pfb" 1557185851 32001 6aeea3afe875097b1eb0da29acd61e28 ""
  "c:/texlive/2019/texmf-dist/fonts/type1/public/amsfonts/cm/cmmi12.pfb" 1557185851 36741 0ee9e374ec3e30da87cdfb0ea3575226 ""
  "c:/texlive/2019/texmf-dist/fonts/type1/public/amsfonts/cm/cmmi8.pfb" 1557185851 35469 dcf3a5f2fc1862f5952e3ee5eb1d98c4 ""
  "c:/texlive/2019/texmf-dist/fonts/type1/public/amsfonts/cm/cmr10.pfb" 1557185851 35752 024fb6c41858982481f6968b5fc26508 ""
  "c:/texlive/2019/texmf-dist/fonts/type1/public/amsfonts/cm/cmr12.pfb" 1557185851 32722 d7379af29a190c3f453aba36302ff5a9 ""
  "c:/texlive/2019/texmf-dist/fonts/type1/public/amsfonts/cm/cmr17.pfb" 1557185851 32362 bc3f3eec7ab7d65fe700963d4017d32c ""
  "c:/texlive/2019/texmf-dist/fonts/type1/public/amsfonts/cm/cmr8.pfb" 1557185851 32726 39f0f9e62e84beb801509898a605dbd5 ""
  "c:/texlive/2019/texmf-dist/fonts/type1/public/amsfonts/cm/cmsl12.pfb" 1557185851 34586 5a65dc15601f9c74fe3fb3f37b3b8b6f ""
  "c:/texlive/2019/texmf-dist/fonts/type1/public/amsfonts/cm/cmsy10.pfb" 1557185851 32569 5e5ddc8df908dea60932f3c484a54c0d ""
  "c:/texlive/2019/texmf-dist/fonts/type1/public/amsfonts/cm/cmti12.pfb" 1557185851 36118 fad905eba93cff5bce1e185fe980a177 ""
  "c:/texlive/2019/texmf-dist/tex/context/base/mkii/supp-pdf.mkii" 1557188039 71627 94eb9990bed73c364d7f53f960cc8c5b ""
  "c:/texlive/2019/texmf-dist/tex/generic/babel-english/english.ldf" 1557186037 7008 9ff5fdcc865b01beca2b0fe4a46231d4 ""
  "c:/texlive/2019/texmf-dist/tex/generic/babel-spanish/spanish.ldf" 1557186087 26223 0286ca123141cff8dd4956c4576d2ef4 ""
  "c:/texlive/2019/texmf-dist/tex/generic/babel/babel.def" 1557186019 78303 c54368864528e704f6f347e670e631cd ""
  "c:/texlive/2019/texmf-dist/tex/generic/babel/babel.sty" 1557186019 17694 218403ecedc79eb72e8ecde7bc3b3f87 ""
  "c:/texlive/2019/texmf-dist/tex/generic/babel/switch.def" 1557186022 14454 24b05ffde1fce7ca761904a613e8ce1f ""
  "c:/texlive/2019/texmf-dist/tex/generic/babel/txtbabel.def" 1557186022 7435 ef73091c345c1e2e85b0f9a441eb1f7d ""
  "c:/texlive/2019/texmf-dist/tex/generic/oberdiek/atbegshi.sty" 1557188212 24580 144573175d90c8e36676f97ae1d11ec2 ""
  "c:/texlive/2019/texmf-dist/tex/generic/oberdiek/etexcmds.sty" 1557188212 7612 729a8cc22a1ee0029997c7f74717ae05 ""
  "c:/texlive/2019/texmf-dist/tex/generic/oberdiek/ifluatex.sty" 1557187386 7324 2310d1247db0114eb4726807c8837a0e ""
  "c:/texlive/2019/texmf-dist/tex/generic/oberdiek/ifpdf.sty" 1557188212 1300 96620a7d94bc0ceb261d968770ce8315 ""
  "c:/texlive/2019/texmf-dist/tex/generic/oberdiek/infwarerr.sty" 1557188212 8253 473e0e41f9adadb1977e8631b8f72ea6 ""
  "c:/texlive/2019/texmf-dist/tex/generic/oberdiek/kvdefinekeys.sty" 1557188212 5152 b67a3a964ad9851e095110c854a1d461 ""
  "c:/texlive/2019/texmf-dist/tex/generic/oberdiek/kvsetkeys.sty" 1557188212 14040 ac8866aac45982ac84021584b0abb252 ""
  "c:/texlive/2019/texmf-dist/tex/generic/oberdiek/ltxcmds.sty" 1557188212 18425 5b3c0c59d76fac78978b5558e83c1f36 ""
  "c:/texlive/2019/texmf-dist/tex/generic/oberdiek/pdftexcmds.sty" 1557188213 20457 0d2e642faacbb41c9d72690f8cc529cd ""
  "c:/texlive/2019/texmf-dist/tex/latex/base/fleqn.clo" 1557187596 4754 ad08e171c7eaaa1b8b818840fc29e98f ""
  "c:/texlive/2019/texmf-dist/tex/latex/base/inputenc.sty" 1557187596 5052 b64c57f4a38aae0d2745f8298fa50814 ""
  "c:/texlive/2019/texmf-dist/tex/latex/base/latin1.def" 1557187596 5679 7bd3029ea9aed93e5c7975d66608ed9e ""
  "c:/texlive/2019/texmf-dist/tex/latex/base/report.cls" 1557187596 22992 ac205d2578ad3f18cf73b50579632d1c ""
  "c:/texlive/2019/texmf-dist/tex/latex/base/size12.clo" 1557187596 8305 6a682ae291edd56e2d7accbf95eca451 ""
  "c:/texlive/2019/texmf-dist/tex/latex/eso-pic/eso-pic.sty" 1557186969 11991 c1669f88e13f8bb6243df144e456b477 ""
  "c:/texlive/2019/texmf-dist/tex/latex/eso-pic/showframe.sty" 1557186969 2263 1f34f8b79f1d45bdd53367bdec31f62b ""
  "c:/texlive/2019/texmf-dist/tex/latex/footmisc/footmisc.sty" 1557187146 25776 d28bd6d82f168f8cb2268584b67a2a98 ""
  "c:/texlive/2019/texmf-dist/tex/latex/graphics-cfg/color.cfg" 1557187271 1213 620bba36b25224fa9b7e1ccb4ecb76fd ""
  "c:/texlive/2019/texmf-dist/tex/latex/graphics-cfg/graphics.cfg" 1557187271 1224 978390e9c2234eab29404bc21b268d1e ""
  "c:/texlive/2019/texmf-dist/tex/latex/graphics-def/pdftex.def" 1557187271 17334 520b9b85ad8a2a48eda3f643e27a5179 ""
  "c:/texlive/2019/texmf-dist/tex/latex/graphics/graphics.sty" 1557187269 15272 5a97061616e0c8b2aa79c6615ff769f4 ""
  "c:/texlive/2019/texmf-dist/tex/latex/graphics/graphicx.sty" 1557187269 9063 d0a305975932762117cd1f06a582f896 ""
  "c:/texlive/2019/texmf-dist/tex/latex/graphics/keyval.sty" 1557187269 2591 6404d0c7d28505fb38ce0d86c2e28ae7 ""
  "c:/texlive/2019/texmf-dist/tex/latex/graphics/trig.sty" 1557187269 3977 cb9221976ed8a183afad65b59aa8629a ""
  "c:/texlive/2019/texmf-dist/tex/latex/latexconfig/epstopdf-sys.cfg" 1557187640 678 4792914a8f45be57bb98413425e4c7af ""
  "c:/texlive/2019/texmf-dist/tex/latex/listings/listings.cfg" 1557187743 1830 8ebf24b6078970a5f7b81814f96ef6bc ""
  "c:/texlive/2019/texmf-dist/tex/latex/listings/listings.sty" 1557187743 80450 ccf6250c881393368e27f23b483782ab ""
  "c:/texlive/2019/texmf-dist/tex/latex/listings/lstmisc.sty" 1557187743 77022 9205b75844150972cc4077e78ec26b25 ""
  "c:/texlive/2019/texmf-dist/tex/latex/ms/everysel.sty" 1557188040 4623 936bfb87af7b91b6496a2317f80db16b ""
  "c:/texlive/2019/texmf-dist/tex/latex/ms/ragged2e.sty" 1557188040 9938 95cd4dc3edfd2c1a9e8f3f4cc43db1ce ""
  "c:/texlive/2019/texmf-dist/tex/latex/oberdiek/epstopdf-base.sty" 1557188213 12095 5337833c991d80788a43d3ce26bd1c46 ""
  "c:/texlive/2019/texmf-dist/tex/latex/oberdiek/grfext.sty" 1557188213 7075 2fe3d848bba95f139de11ded085e74aa ""
  "c:/texlive/2019/texmf-dist/tex/latex/oberdiek/kvoptions.sty" 1557188213 22417 1d9df1eb66848aa31b18a593099cf45c ""
  "c:/texlive/2019/texmf-dist/tex/latex/setspace/setspace.sty" 1557188856 22913 a27d7908fc6f0385466454a966a316eb ""
  "c:/texlive/2019/texmf-dist/tex/latex/tabu/tabu.sty" 1557189027 116392 98cfe11e2c593abcfc7d855738ed65af ""
  "c:/texlive/2019/texmf-dist/tex/latex/tools/array.sty" 1557189280 12527 31ab547f6520657998ecf91709f950ac ""
  "c:/texlive/2019/texmf-dist/tex/latex/varwidth/varwidth.sty" 1557189445 10894 d359a13923460b2a73d4312d613554c8 ""
  "c:/texlive/2019/texmf-dist/tex/latex/xcolor/xcolor.sty" 1557189534 55589 34128738f682d033422ca125f82e5d62 ""
  "c:/texlive/2019/texmf-dist/web2c/texmf.cnf" 1557187555 35484 cb1661360667bf4db662a8895053b554 ""
  "c:/texlive/2019/texmf-var/fonts/map/pdftex/updmap/pdftex.map" 1557189692 3307272 092d5240e6c28128f606b622c6c4c981 ""
  "c:/texlive/2019/texmf-var/web2c/pdftex/pdflatex.fmt" 1557189813 4255897 2e271ab42a5235a03553939e83407ff6 ""
  "c:/texlive/2019/texmf.cnf" 1557189648 673 4ae7b2f49cee444c5343a45b5d0f169c ""
  "content/0_resumen.tex" 1557200754 39 43072b0b9454dbdb9327f581bc700675 ""
  "content/1_introduccion.tex" 1557191604 7416 5d8333dfcce6045d50bde411f1b9c749 ""
  "content/2_marco_teorico.tex" 1557191605 20733 6de021d5d7296741d598ea9890e808d9 ""
  "content/3_metodologia.tex" 1557191608 11975 b847f62e9b9a31b78a0fb03e11d6f0d6 ""
  "content/4_requisitos.tex" 1557194506 8026 6f7af09b53d2cef0196cd300e8e9ad5c ""
  "content/5_disenio.tex" 1557191601 8147 1675a557b0089e9b022f76ec8fefaedd ""
  "content/6_desarrollo.tex" 1557200754 0 d41d8cd98f00b204e9800998ecf8427e ""
  "content/7_pruebas_resultados.tex" 1557200754 606 33cb9722dd898b1cad17ae2264c589b2 ""
  "content/8_conclusion_trabajo_futuro.tex" 1557200754 386 24d38a14876675d2b33bb4fa567cfac2 ""
  "content/9_glosario.tex" 1557191320 3444 a413988e1377211c5e6c9dbcea5f7c37 ""
  "content/agradecimientos.tex" 1557191714 49 3994a4299e70f4ac5a1651765c48c3b8 ""
  "content/anexos/1_marco_teorico.tex" 1557191611 1133 9eeea6c2516474612d7ebf5fec7691f9 ""
  "content/anexos/2_construccion.tex" 1557194687 189 32e7ac78b32d15018d377ea6d227a531 ""
  "content/anexos/3_disenio.tex" 1557191610 181 efd409019cfc9e713ca2602e359dec9f ""
  "content/anexos/4_pruebas.tex" 1557200754 0 d41d8cd98f00b204e9800998ecf8427e ""
  "iccmemoria.cls" 1557200754 11010 38c4d4eab75649dea6516eeae750c960 ""
  "image/ALogicaControlador.png" 1557200754 10270 92b50748f16ac7f027d66e45f3fda82c ""
  "image/ALogicaModelo.png" 1557200754 11661 c14a86109d1d3fa906ec5c9dc05ea27a ""
  "image/ALogicaVista.png" 1557200754 7645 70cd645d13c624a49c85e96cc39cad0f ""
  "image/ArquitecturaLogica.jpg" 1557200754 23541 ec7bfa52d17489aa5d4ae97a55724f98 ""
  "image/PlanCurricularICC.png" 1557200754 382524 4677b390685fdc61c425d5ab3157b510 ""
  "image/arquitecturaFisica.png" 1557200754 16000 7a55616584e7d58bc449008069dcf4e2 ""
  "image/caja_negra.png" 1557200754 16630 f8eb3734de452ee9962ba5c59203beab ""
  "image/diagrama_1.png" 1557200754 54972 1c2cc203ef9fc1de53bf935057c43a53 ""
  "image/diagrama_2.png" 1557200754 58909 d524ffa411981890cf0afccc40ec2401 ""
  "image/fase_a.png" 1557200754 29071 fd209157a092320f0726edc98e843f86 ""
  "image/fase_b.png" 1557200754 15424 9004edc39a6c3b06d49a654e08c3cdab ""
  "image/fase_c.png" 1557200754 14408 41942b5e45d3351f1d2c7162f6a4b393 ""
  "image/fase_d.png" 1557200754 4405 172ba54b00605152fa83fd16081bccc5 ""
  "image/fase_e.png" 1557200754 33024 dba649092d0e99f3673faa7a84de8ccd ""
  "image/gentelella.png" 1557200754 507977 bf6fab6dd0baf63d29b98379ea7cfce9 ""
  "image/incremental.png" 1557200754 53959 6e186387b12ac4338be94837207f0859 ""
  "image/modelo_ipt_1.png" 1557200754 88965 d5686bf26a4c555d7b7a30ed509df220 ""
  "image/modelo_ipt_2.png" 1557200754 121506 fd3e7d001993a183d6843ac84787930c ""
  "image/ttti.png" 1557200754 125034 4652af1b721f63c9388f1c775cec4618 ""
  "memoria.aux" 0 -1 0 "pdflatex"
  "memoria.bbl" 0 -1 0 "bibtex memoria"
  "memoria.lof" 0 -1 0 "pdflatex"
  "memoria.lol" 0 -1 0 "pdflatex"
  "memoria.lot" 0 -1 0 "pdflatex"
  "memoria.tex" 1557194588 3928 2688a25949f01aef439a59a31bcb851d ""
  "memoria.toc" 0 -1 0 "pdflatex"
  "utalca1.eps" 1557200754 23461 8f72e012c722137f544613f8aa6a301b ""
  (generated)
  "memoria.toc"
  "c:/Users/Liemind/Documents/Universidad de Talca/2019-1/THISIS/Thisis/memoria.log"
  "memoria.lof"
  "memoria.lot"
  "memoria.aux"
  "memoria.log"
  "memoria.pdf"
  "memoria.lol"
  "c:/Users/Liemind/Documents/Universidad de Talca/2019-1/THISIS/Thisis/memoria.pdf"
